{
  "collision_data":
    [
      [0, 0, 1145, 525], 
      [0, 525, 1466, 679], 
      [1100, 0, 4165, 315],
      [3000, 310, 2355, 425],
      [5171, 446, 500, 1590],
      [5680, 1205, 713, 376],
      [3745, 3145, 1645, 1555],
      [6535, 5375, 1455, 915],
      [0, 2275, 1130, 1075],
      [750, 3365, 142, 60],
      [320, 5180, 1705, 1215],
      [0, 3365, 310, 1820],
      [0, 5165, 1705, 1200],
      [0, 6390, 824, 1595],
      [2290, 7145, 2295, 820],
      [0, 0, 3100, 325],
      [0, 0, 8000, 70],
      [0, 0, 56, 8000],
      [7920, 63, 50, 8000],
      [0, 7943, 8000, 57],
      [4567, 7802, 3433, 185]
    ]
}
